<?xml version="1.0" encoding="utf-8"?>
<!-- Generator: Adobe Illustrator 19.0.0, SVG Export Plug-In . SVG Version: 6.00 Build 0)  -->
<svg version="1.1" id="Layer_1" xmlns="http://www.w3.org/2000/svg" xmlns:xlink="http://www.w3.org/1999/xlink" x="0px" y="0px"
	 viewBox="0 0 7.2 7.2" style="enable-background:new 0 0 7.2 7.2;" xml:space="preserve">
<style type="text/css">
	.st0{fill:#FFFFFF;}
</style>
<g>
	<path class="st0" d="M5.5,4.8c-0.2-0.2-0.5-0.2-0.8,0C4.5,4.9,4.3,5.1,4.2,5.3c0,0-0.1,0.1-0.1,0C3.9,5.3,3.8,5.2,3.7,5.1
		c-0.5-0.3-1-0.7-1.3-1.2C2.2,3.7,2,3.4,1.9,3.2c0-0.1,0-0.1,0-0.1c0.2-0.2,0.4-0.3,0.5-0.5c0.2-0.2,0.2-0.5,0-0.8L2,1.3L1.6,0.9
		C1.3,0.6,1,0.6,0.8,0.9C0.6,1,0.5,1.2,0.3,1.4C0.1,1.6,0,1.8,0,2C0,2.4,0.1,2.7,0.2,3C0.5,3.8,0.9,4.4,1.3,5C2,5.8,2.8,6.4,3.7,6.8
		C4.1,7,4.5,7.2,5,7.2c0.3,0,0.6-0.1,0.8-0.3C6,6.7,6.2,6.6,6.3,6.4c0.2-0.2,0.2-0.5,0-0.8L5.5,4.8z"/>
	<path class="st0" d="M5.2,3.6l0.5-0.1C5.6,3,5.4,2.5,5,2.1C4.7,1.8,4.2,1.5,3.6,1.4L3.6,2C4,2,4.4,2.2,4.6,2.5
		C4.9,2.8,5.1,3.2,5.2,3.6z"/>
	<path class="st0" d="M6,1.2C5.4,0.5,4.6,0.1,3.7,0L3.6,0.6c0.8,0.1,1.5,0.4,2,1c0.5,0.5,0.9,1.2,1,1.9l0.5-0.1C7,2.5,6.7,1.8,6,1.2
		z"/>
</g>
</svg>
