<?xml version="1.0" encoding="utf-8"?>
<!-- Generator: Adobe Illustrator 19.0.0, SVG Export Plug-In . SVG Version: 6.00 Build 0)  -->
<svg version="1.1" id="Layer_1" xmlns="http://www.w3.org/2000/svg" xmlns:xlink="http://www.w3.org/1999/xlink" x="0px" y="0px"
	 viewBox="0 0 6.2 7.2" style="enable-background:new 0 0 6.2 7.2;" xml:space="preserve">
<style type="text/css">
	.st0{fill:#B1872D;}
	.st1{fill-rule:evenodd;clip-rule:evenodd;fill:#B1872D;}
</style>
<g>
	<path class="st0" d="M3,3.4C3,3.5,3,3.6,3.1,3.6c0.1,0,0.2-0.1,0.2-0.2c0-0.2,0.1-0.4,0.2-0.5c0.3-0.3,0.5-0.7,0.6-1.1
		c0-0.1,0-0.1,0-0.1c0,0-0.1-0.1-0.1-0.1H2.3c-0.1,0-0.1,0-0.1,0.1c0,0,0,0.1,0,0.1c0.1,0.4,0.3,0.7,0.6,1.1C2.9,3.1,3,3.2,3,3.4z"
		/>
	<path class="st0" d="M3.3,4.1c0-0.1-0.1-0.2-0.2-0.2C3,3.9,3,4,3,4.1c0,0.2-0.1,0.5-0.4,0.7C2,5.2,1.6,5.6,1.4,6.1
		c0,0.1,0,0.1,0,0.2c0,0.1,0.1,0.1,0.1,0.1h3.2c0.1,0,0.1,0,0.1-0.1c0,0,0-0.1,0-0.2C4.6,5.6,4.2,5.2,3.7,4.8
		C3.4,4.6,3.3,4.3,3.3,4.1z"/>
	<path class="st1" d="M1.1,6.6c0.1-1.2,0.9-2,1.4-2.7l0,0c0.1-0.1,0.1-0.3,0-0.4l0,0C1.9,2.7,1.2,1.8,1.1,0.7h4.1
		c-0.1,1.1-0.8,2-1.4,2.7l0,0c-0.1,0.1-0.1,0.3,0,0.4l0,0c0.5,0.7,1.3,1.5,1.4,2.7H1.1z M5.9,6.6L5.9,6.6C5.7,5.3,5,4.3,4.4,3.6
		C5,2.9,5.7,1.9,5.8,0.6h0.1c0.2,0,0.3-0.1,0.3-0.3S6.1,0,5.9,0H0.3C0.1,0,0,0.2,0,0.3s0.1,0.3,0.3,0.3h0.1c0.1,1.3,0.8,2.3,1.4,2.9
		c-0.6,0.7-1.3,1.7-1.4,3H0.3C0.1,6.6,0,6.7,0,6.9c0,0.2,0.1,0.3,0.3,0.3h0.4h4.8h0.4c0.2,0,0.3-0.1,0.3-0.3
		C6.2,6.7,6.1,6.6,5.9,6.6z"/>
</g>
</svg>
