<?xml version="1.0" encoding="utf-8"?>
<!-- Generator: Adobe Illustrator 19.0.0, SVG Export Plug-In . SVG Version: 6.00 Build 0)  -->
<svg version="1.1" id="Layer_1" xmlns="http://www.w3.org/2000/svg" xmlns:xlink="http://www.w3.org/1999/xlink" x="0px" y="0px"
	 viewBox="0 0 4.3 9.6" style="enable-background:new 0 0 4.3 9.6;" xml:space="preserve">
<style type="text/css">
	.st0{fill:#565656;}
</style>
<g>
	<g>
		<path class="st0" d="M0.9,1.9v1.3H0v1.6h0.9v4.8h1.9V4.8h1.3c0,0,0.1-0.8,0.2-1.6H2.9V2.1c0-0.2,0.2-0.4,0.4-0.4h1V0H2.9
			C0.9,0,0.9,1.6,0.9,1.9z"/>
	</g>
</g>
<g>
	<g>
		<path class="st0" d="M0.9,1.9v1.3H0v1.6h0.9v4.8h1.9V4.8h1.3c0,0,0.1-0.8,0.2-1.6H2.9V2.1c0-0.2,0.2-0.4,0.4-0.4h1V0H2.9
			C0.9,0,0.9,1.6,0.9,1.9z"/>
	</g>
</g>
</svg>
