<?xml version="1.0" encoding="utf-8"?>
<!-- Generator: Adobe Illustrator 19.0.0, SVG Export Plug-In . SVG Version: 6.00 Build 0)  -->
<svg version="1.1" id="Layer_1" xmlns="http://www.w3.org/2000/svg" xmlns:xlink="http://www.w3.org/1999/xlink" x="0px" y="0px"
	 viewBox="0 0 9.1 9.1" style="enable-background:new 0 0 9.1 9.1;" xml:space="preserve">
<style type="text/css">
	.st0{fill-rule:evenodd;clip-rule:evenodd;fill:#FFFFFF;}
</style>
<g>
	<rect class="st0" width="3.8" height="3.8"/>
	<rect x="5.3" class="st0" width="3.8" height="3.8"/>
	<rect y="5.3" class="st0" width="3.8" height="3.8"/>
	<rect x="5.3" y="5.3" class="st0" width="3.8" height="3.8"/>
</g>
</svg>
