<?xml version="1.0" encoding="utf-8"?>
<!-- Generator: Adobe Illustrator 16.0.0, SVG Export Plug-In . SVG Version: 6.00 Build 0)  -->
<!DOCTYPE svg PUBLIC "-//W3C//DTD SVG 1.1//EN" "http://www.w3.org/Graphics/SVG/1.1/DTD/svg11.dtd">
<svg version="1.1" id="Layer_1" xmlns="http://www.w3.org/2000/svg" xmlns:xlink="http://www.w3.org/1999/xlink" x="0px" y="0px"
	 width="57.604px" height="13.92px" viewBox="0 0 57.604 13.92" enable-background="new 0 0 57.604 13.92" xml:space="preserve">
<g>
	<path fill-rule="evenodd" clip-rule="evenodd" fill="#229BD7" d="M5.031,3.279h3.93c2.12,0,2.91,1.061,2.79,2.631
		c-0.2,2.59-1.77,4.02-3.85,4.02h-1.06c-0.28,0-0.47,0.19-0.55,0.7l-0.45,2.97c-0.03,0.19-0.13,0.311-0.28,0.32h-2.47
		c-0.23,0-0.32-0.18-0.26-0.561l1.51-9.52C4.401,3.46,4.611,3.279,5.031,3.279z"/>
	<path fill-rule="evenodd" clip-rule="evenodd" fill="#233D7F" d="M33.952,6.029h-1.32c-0.27,0-0.38,0.19-0.29,0.451l1.64,4.789
		l-1.62,2.28c-0.13,0.19-0.03,0.36,0.16,0.36h1.48c0.23,0,0.33-0.061,0.45-0.221l5.04-7.209c0.15-0.221,0.08-0.461-0.17-0.461h-1.41
		c-0.24,0-0.34,0.101-0.47,0.301l-2.11,3.039l-0.93-3.049C34.341,6.12,34.202,6.029,33.952,6.029z M27.401,10.49
		c-0.87,0-1.47-0.69-1.35-1.53c0.13-0.851,0.94-1.54,1.8-1.54c0.87,0,1.47,0.689,1.34,1.54C29.071,9.8,28.261,10.49,27.401,10.49z
		 M28.481,11.26c0.14-0.119,0.28-0.189,0.26-0.04l-0.05,0.36c-0.03,0.189,0.05,0.29,0.22,0.29h1.31c0.21,0,0.32-0.091,0.38-0.431
		l0.8-5.02c0.04-0.25-0.02-0.38-0.22-0.38h-1.43c-0.13,0-0.19,0.069-0.22,0.271l-0.06,0.31c-0.02,0.159-0.1,0.19-0.17,0.03
		c-0.24-0.58-0.86-0.83-1.73-0.82c-2.01,0.04-3.36,1.57-3.51,3.52c-0.11,1.5,0.98,2.69,2.4,2.69
		C27.501,12.04,27.961,11.73,28.481,11.26z M19.731,7.25h1.19c0.75-0.03,1.24-0.551,1.29-1.48c0.03-0.57-0.36-0.979-0.97-0.979
		l-1.13,0.01L19.731,7.25z M22.111,3.1c1.33,0,2.56,0.721,2.39,2.51c-0.2,2.121-1.35,3.311-3.15,3.311h-1.58
		c-0.22,0-0.33,0.18-0.39,0.561l-0.3,1.939c-0.05,0.29-0.2,0.43-0.42,0.43h-1.47c-0.23,0-0.31-0.15-0.26-0.479l1.21-7.75
		c0.06-0.38,0.21-0.521,0.46-0.521H22.111z"/>
	<path fill-rule="evenodd" clip-rule="evenodd" fill="#229BD7" d="M56.031,11.88h-1.51c-0.12,0-0.2-0.09-0.18-0.21l1.32-8.34
		c0.02-0.12,0.13-0.21,0.25-0.21h1.5c0.12,0,0.21,0.09,0.19,0.21l-1.32,8.34C56.261,11.79,56.151,11.88,56.031,11.88z M50.021,10.49
		c-0.87,0-1.47-0.69-1.34-1.53c0.12-0.851,0.93-1.54,1.79-1.54c0.87,0,1.47,0.689,1.35,1.54C51.691,9.8,50.881,10.49,50.021,10.49z
		 M51.111,11.26c0.13-0.119,0.27-0.189,0.25-0.04l-0.05,0.36c-0.02,0.189,0.05,0.29,0.23,0.29h1.3c0.22,0,0.32-0.091,0.38-0.431
		l0.8-5.02c0.04-0.25-0.02-0.38-0.21-0.38h-1.43c-0.13,0-0.2,0.069-0.23,0.271l-0.05,0.31c-0.03,0.159-0.1,0.19-0.17,0.03
		c-0.25-0.58-0.87-0.83-1.74-0.82c-2,0.04-3.36,1.57-3.5,3.52c-0.12,1.5,0.97,2.69,2.4,2.69C50.122,12.04,50.591,11.73,51.111,11.26
		z M42.352,7.25h1.19c0.75-0.03,1.25-0.551,1.3-1.48c0.03-0.57-0.36-0.979-0.98-0.979l-1.13,0.01L42.352,7.25z M44.742,3.1
		c1.33,0,2.55,0.721,2.38,2.51c-0.2,2.121-1.34,3.311-3.15,3.311h-1.57c-0.23,0-0.34,0.18-0.4,0.561l-0.3,1.939
		c-0.05,0.29-0.2,0.43-0.42,0.43h-1.47c-0.23,0-0.31-0.15-0.26-0.479l1.21-7.75c0.06-0.38,0.21-0.521,0.47-0.521H44.742z"/>
	<path fill-rule="evenodd" clip-rule="evenodd" fill="#233D7F" d="M2.562,0h3.95c1.1,0,2.42,0.04,3.3,0.811
		c0.59,0.52,0.9,1.34,0.83,2.229c-0.24,3-2.04,4.68-4.46,4.68h-1.94c-0.33,0-0.55,0.22-0.64,0.81l-0.55,3.44
		c-0.03,0.22-0.13,0.36-0.31,0.37h-2.42c-0.27,0-0.37-0.199-0.3-0.65L1.771,0.65C1.841,0.21,2.082,0,2.562,0z"/>
	<path fill-rule="evenodd" clip-rule="evenodd" fill="#27316D" d="M3.651,8.18l0.69-4.34c0.06-0.38,0.27-0.561,0.69-0.561h3.93
		c0.65,0,1.18,0.101,1.59,0.281c-0.39,2.68-2.12,4.159-4.39,4.159h-1.95C3.961,7.72,3.771,7.85,3.651,8.18z"/>
</g>
</svg>
