<?xml version="1.0" encoding="utf-8"?>
<!-- Generator: Adobe Illustrator 19.0.0, SVG Export Plug-In . SVG Version: 6.00 Build 0)  -->
<svg version="1.1" id="Layer_1" xmlns="http://www.w3.org/2000/svg" xmlns:xlink="http://www.w3.org/1999/xlink" x="0px" y="0px"
	 viewBox="0 0 7.2 5.8" style="enable-background:new 0 0 7.2 5.8;" xml:space="preserve">
<style type="text/css">
	.st0{fill:#FFFFFF;}
</style>
<g>
	<path class="st0" d="M6.6,5.8c0.2,0,0.3-0.1,0.4-0.2l-2-2.1L4.8,3.6C4.6,3.7,4.5,3.8,4.4,3.9C4.3,4,4.2,4,4.1,4.1
		C3.9,4.2,3.7,4.2,3.6,4.2l0,0l0,0c-0.1,0-0.3,0-0.4-0.1C3,4,2.9,4,2.8,3.9C2.7,3.8,2.6,3.7,2.4,3.6L2.3,3.5l-2,2.1
		c0.1,0.1,0.3,0.2,0.4,0.2H6.6z"/>
	<path class="st0" d="M0.4,2.2C0.3,2.1,0.1,2,0,1.9V5l1.8-1.8C1.4,2.9,1,2.6,0.4,2.2z"/>
	<path class="st0" d="M6.8,2.2c-0.6,0.4-1,0.7-1.4,1L7.2,5V1.9C7.1,2,6.9,2.1,6.8,2.2z"/>
	<path class="st0" d="M6.6,0H0.6C0.4,0,0.3,0.1,0.2,0.2S0,0.5,0,0.7c0,0.2,0.1,0.4,0.2,0.6s0.3,0.4,0.5,0.5l0.8,0.6l0.7,0.5l0.4,0.3
		l0.1,0l0.1,0.1L3,3.4c0,0,0.1,0.1,0.2,0.1c0.1,0,0.2,0.1,0.2,0.1c0.1,0,0.1,0,0.2,0l0,0l0,0c0.1,0,0.1,0,0.2,0C3.9,3.6,4,3.6,4,3.5
		l0.2-0.1l0.2-0.2l0.1-0.1l0.1,0L5,2.8l1.5-1C6.7,1.6,6.9,1.5,7,1.3c0.1-0.2,0.2-0.4,0.2-0.6c0-0.2-0.1-0.3-0.2-0.5
		C6.9,0.1,6.7,0,6.6,0z"/>
</g>
</svg>
