<?xml version="1.0" encoding="utf-8"?>
<!-- Generator: Adobe Illustrator 19.0.0, SVG Export Plug-In . SVG Version: 6.00 Build 0)  -->
<svg version="1.1" id="Layer_1" xmlns="http://www.w3.org/2000/svg" xmlns:xlink="http://www.w3.org/1999/xlink" x="0px" y="0px"
	 viewBox="0 0 6.7 7.2" style="enable-background:new 0 0 6.7 7.2;" xml:space="preserve">
<style type="text/css">
	.st0{fill-rule:evenodd;clip-rule:evenodd;fill:#B1872D;}
</style>
<g>
	<path class="st0" d="M5.1,1.8c0.2,0,0.3,0.1,0.4,0.3H5.4c-0.1,0-0.1,0.1-0.1,0.2v0.5C5,3,4.7,3.3,4.7,3.6h2C6.7,3.3,6.4,3,6.1,2.8
		V2.3c0-0.1-0.1-0.2-0.2-0.2H5.8C5.8,1.8,5.4,1.5,5.1,1.5H4.8c-0.7,0-1,0.4-1,1.2V5c0,1.3-0.6,1.9-1.7,1.9c-1,0-1.8-0.8-1.8-1.9V3.9
		c0-0.5,0.4-1,0.9-1c0.1,0.3,0.3,0.4,0.6,0.4c0.3,0,0.6-0.3,0.6-0.6S2.1,2.1,1.8,2.1c-0.3,0-0.5,0.2-0.6,0.5C0.5,2.6,0,3.2,0,3.9V5
		c0,1.2,0.9,2.2,2.1,2.2c1.3,0,2-0.8,2-2.2V2.7c0-0.8,0.3-0.9,0.7-0.9H5.1z M5.3,7.2h0.9c0.3,0,0.6-0.3,0.6-0.6h-2
		C4.7,6.9,4.9,7.2,5.3,7.2z M4.7,3.9h2v2.4h-2V3.9z M2.8,1.8h0.4c0.3,0,0.6-0.3,0.6-0.6c0.1,0,0.1-0.1,0.1-0.2V0.8
		c0-0.1-0.1-0.1-0.1-0.1l0,0C3.6,0.3,3.3,0,2.9,0H2.2C2.1,0,2,0.1,2,0.2V1C2,1.5,2.4,1.8,2.8,1.8z M0.2,1.2c0,0.3,0.3,0.6,0.6,0.6
		h0.4c0.4,0,0.7-0.3,0.7-0.8V0.2C1.9,0.1,1.8,0,1.8,0H1C0.6,0,0.3,0.3,0.2,0.6l0,0C0.1,0.6,0,0.7,0,0.8V1C0,1.1,0.1,1.2,0.2,1.2z"/>
</g>
</svg>
