<?xml version="1.0" encoding="utf-8"?>
<!-- Generator: Adobe Illustrator 19.0.0, SVG Export Plug-In . SVG Version: 6.00 Build 0)  -->
<svg version="1.1" id="Layer_1" xmlns="http://www.w3.org/2000/svg" xmlns:xlink="http://www.w3.org/1999/xlink" x="0px" y="0px"
	 viewBox="0 0 8.6 8.6" style="enable-background:new 0 0 8.6 8.6;" xml:space="preserve">
<style type="text/css">
	.st0{fill-rule:evenodd;clip-rule:evenodd;fill:#b38602;}
</style>
<g>
	<path class="st0" d="M6.7,4.8H4.8v1.9h-1V4.8H1.9v-1h1.9V1.9h1V4l1.9-0.3V4.8z M0,0v8.6h8.6V0H0z"/>
</g>
</svg>
