<svg width="200px" height="200px" xmlns="http://www.w3.org/2000/svg" viewBox="0 0 100 100" preserveAspectRatio="xMidYMid"
    class="lds-ellipsis" style="animation-play-state: running; animation-delay: 0s; background: none;">
    <!--circle(cx="16",cy="50",r="10")-->
    <circle cx="84" cy="50" r="0" fill="#B28500" style="animation-play-state: running; animation-delay: 0s;">
        <animate attributeName="r" values="8;0;0;0;0" keyTimes="0;0.25;0.5;0.75;1" keySplines="0 0.5 0.5 1;0 0.5 0.5 1;0 0.5 0.5 1;0 0.5 0.5 1"
            calcMode="spline" dur="1s" repeatCount="indefinite" begin="0s" style="animation-play-state: running; animation-delay: 0s;"></animate>
        <animate attributeName="cx" values="84;84;84;84;84" keyTimes="0;0.25;0.5;0.75;1" keySplines="0 0.5 0.5 1;0 0.5 0.5 1;0 0.5 0.5 1;0 0.5 0.5 1"
            calcMode="spline" dur="1s" repeatCount="indefinite" begin="0s" style="animation-play-state: running; animation-delay: 0s;"></animate>
    </circle>
    <circle cx="84" cy="50" r="0.208158" fill="#B28500" style="animation-play-state: running; animation-delay: 0s;">
        <animate attributeName="r" values="0;8;8;8;0" keyTimes="0;0.25;0.5;0.75;1" keySplines="0 0.5 0.5 1;0 0.5 0.5 1;0 0.5 0.5 1;0 0.5 0.5 1"
            calcMode="spline" dur="1s" repeatCount="indefinite" begin="-0.5s" style="animation-play-state: running; animation-delay: 0s;"></animate>
        <animate attributeName="cx" values="16;16;50;84;84" keyTimes="0;0.25;0.5;0.75;1" keySplines="0 0.5 0.5 1;0 0.5 0.5 1;0 0.5 0.5 1;0 0.5 0.5 1"
            calcMode="spline" dur="1s" repeatCount="indefinite" begin="-0.5s" style="animation-play-state: running; animation-delay: 0s;"></animate>
    </circle>
    <circle cx="83.1153" cy="50" r="8" fill="#B28500" style="animation-play-state: running; animation-delay: 0s;">
        <animate attributeName="r" values="0;8;8;8;0" keyTimes="0;0.25;0.5;0.75;1" keySplines="0 0.5 0.5 1;0 0.5 0.5 1;0 0.5 0.5 1;0 0.5 0.5 1"
            calcMode="spline" dur="1s" repeatCount="indefinite" begin="-0.25s" style="animation-play-state: running; animation-delay: 0s;"></animate>
        <animate attributeName="cx" values="16;16;50;84;84" keyTimes="0;0.25;0.5;0.75;1" keySplines="0 0.5 0.5 1;0 0.5 0.5 1;0 0.5 0.5 1;0 0.5 0.5 1"
            calcMode="spline" dur="1s" repeatCount="indefinite" begin="-0.25s" style="animation-play-state: running; animation-delay: 0s;"></animate>
    </circle>
    <circle cx="49.1153" cy="50" r="8" fill="#B28500" style="animation-play-state: running; animation-delay: 0s;">
        <animate attributeName="r" values="0;8;8;8;0" keyTimes="0;0.25;0.5;0.75;1" keySplines="0 0.5 0.5 1;0 0.5 0.5 1;0 0.5 0.5 1;0 0.5 0.5 1"
            calcMode="spline" dur="1s" repeatCount="indefinite" begin="0s" style="animation-play-state: running; animation-delay: 0s;"></animate>
        <animate attributeName="cx" values="16;16;50;84;84" keyTimes="0;0.25;0.5;0.75;1" keySplines="0 0.5 0.5 1;0 0.5 0.5 1;0 0.5 0.5 1;0 0.5 0.5 1"
            calcMode="spline" dur="1s" repeatCount="indefinite" begin="0s" style="animation-play-state: running; animation-delay: 0s;"></animate>
    </circle>
    <circle cx="16" cy="50" r="7.79184" fill="#B28500" style="animation-play-state: running; animation-delay: 0s;">
        <animate attributeName="r" values="0;0;8;8;8" keyTimes="0;0.25;0.5;0.75;1" keySplines="0 0.5 0.5 1;0 0.5 0.5 1;0 0.5 0.5 1;0 0.5 0.5 1"
            calcMode="spline" dur="1s" repeatCount="indefinite" begin="0s" style="animation-play-state: running; animation-delay: 0s;"></animate>
        <animate attributeName="cx" values="16;16;16;50;84" keyTimes="0;0.25;0.5;0.75;1" keySplines="0 0.5 0.5 1;0 0.5 0.5 1;0 0.5 0.5 1;0 0.5 0.5 1"
            calcMode="spline" dur="1s" repeatCount="indefinite" begin="0s" style="animation-play-state: running; animation-delay: 0s;"></animate>
    </circle>
</svg>